<?xml version="1.0" encoding="UTF-8"?>
<!DOCTYPE suite SYSTEM "http://testng.org/testng-1.0.dtd">
<suite guice-stage="DEVELOPMENT" verbose="0" name="Failed suite [rm_km_cib]">
  <test name="rm_km_cib(failed)">
    <classes>
      <class name="test.ProductsTest">
        <methods>
          <include name="checkCredContractInfo"/>
          <include name="checkGetCorporateCard"/>
          <include name="checkGetLegalDepositInfo"/>
          <include name="checkAttribute"/>
          <include name="checkGetSettlementAgreemt"/>
        </methods>
      </class> <!-- test.ProductsTest -->
      <class name="test.TempStep">
        <methods>
          <include name="checkAttributeClientCard"/>
        </methods>
      </class> <!-- test.TempStep -->
      <class name="test.ClientTest">
        <methods>
          <include name="attributeClientCardTest"/>
          <include name="checkIerarchyListInClientCard"/>
          <include name="roleWithDifferentAuth"/>
          <include name="checkGetLegalClientProfile"/>
          <include name="attributeClientListTest"/>
          <include name="checkGetLegalClientList"/>
        </methods>
      </class> <!-- test.ClientTest -->
      <class name="test.TaskTest">
        <methods>
          <include name="checkAttributeTaskCard"/>
          <include name="checkAttributeTaskList"/>
          <include name="checkGetLegalClientManagerTaskList"/>
          <include name="checkUpdateTask"/>
          <include name="checkGetLegalClientManagerTaskDetails"/>
          <include name="checkNewTask"/>
        </methods>
      </class> <!-- test.TaskTest -->
      <class name="test.AgentsTest">
        <methods>
          <include name="checkAttributeInAgentsCard"/>
        </methods>
      </class> <!-- test.AgentsTest -->
    </classes>
  </test> <!-- rm_km_cib(failed) -->
</suite> <!-- Failed suite [rm_km_cib] -->
